{
  "settings": {
    "i18n": {
      "el": {
        "Date": "Ημερομηνία",
        "Start Time": "Ώρα Έναρξης",
        "End Time": "Ώρα Λήξης",
        "Event Name": "Τίτλος Γεγονότος",
        "Description": "Περιγραφή",
        "Sections": "Τμήματα",
        "Edit Event": "Επεξεργασία Γεγονότος",
        "Absence Coefficient": "Συντελεστής Απουσίας",
        "The number of absences an absent student will be charged with.": "Ο αριθμός των απουσιών που θα χρεωθεί ένας απόντας φοιτητής.",
        "Start time cannot succeed end time.": "Η ώρα έναρξης δεν μπορεί να έπεται της ώρας λήξης.",
        "End time cannot precede start time.": "Η ώρα λήξης δεν μπορεί να προηγείται της ώρας έναρξης.",
        "The absence coefficient must be an integer.": "Ο συντελεστής απουσίας πρέπει να είναι ακέραιος.",
        "Place": "Τοποθεσία",
        "This event will be scheduled at a future date": "Αυτο το γεγονός θα προγραμματιστεί στο μέλλον",
        "Duration": "Διάρκεια",
        "Set event duration in minutes": "Ορίστε την διάρκεια του γεγονότος σε λεπτά",
        "Event URL":"URL Γεγονότος",
        "Enter the URL related to the event":"Eισάγετε την ηλεκτρονική διεύθυνση που σχετίζεται με το γεγονός",
        "Expected a valid absolute URL": "Αναμένεται μία έγκυρη διεύθυνση URL",
        "Event date cannot be earlier than the timetable start date or after the timetable end date": "Η ημερομηνία του γεγονότος δεν μπορεί να προηγείται της ημερομηνίας έναρξης ή να έπεται της ημερομηνίας λήξης του ημερολογίου",
        "This event is part of a recurring event. The completion of the action also implies its removal from the chain of the recurring event. In case you do not want the above to happen, you can cancel the specified event and create a new one.": "Αυτό το γεγονός αποτελεί μέρος ενός επαναλαμβανόμενου γεγονότος. Η ολοκλήρωση της ενέργειας συνεπάγεται και αφαίρεση του από την αλυσίδα του επαναλαμβανόμενου γεγονότος. Σε περίπτωση που δεν επιθυμείτε να συμβεί το παραπάνω, μπορείτε να ακυρώσετε το συγκεκριμένο γεγονός και να δημιουργήσετε ένα καινούργιο."
      }
    }
  },
  "components": [
    {
      "type": "fieldset",
      "legend": "Edit Event",
      "components": [
        {
          "key": "editEventInfo",
          "type": "fieldset",
          "label": "Class and instructor info for this new event",
          "hideLabel": true,
          "input": false,
          "tableView": false,
          "components": [
            {
              "label": "HTML",
              "tag": "div",
              "className": "form-group",
              "content": "<div class=\"font-md mb-0\">({{data.courseClass && data.courseClass.course && data.courseClass.course.displayCode }}) {{ data.courseClass && data.courseClass.course && data.courseClass.course.name }} - {{data.performer && data.performer.alternateName}} ({{data.superEvent && data.superEvent.startDate && data.superEvent.startDate.toLocaleDateString(instance.i18next.language)}} - {{data.superEvent && data.superEvent.endDate && data.superEvent.endDate.toLocaleDateString(instance.i18next.language)}})</div>",
              "refreshOnChange": false,
              "tableView": false,
              "key": "subtitle",
              "customConditional": "show = !!(data.performer && data.courseClass)",
              "type": "htmlelement",
              "input": false
            },
            {
              "label": "HTML",
              "tag": "div",
              "content": "<div class=\"alert alert-warning font-md\">This event is part of a recurring event. The completion of the action also implies its removal from the chain of the recurring event. In case you do not want the above to happen, you can cancel the specified event and create a new one.</div>",
              "refreshOnChange": false,
              "tableView": false,
              "key": "warning",
              "customConditional": "show = data.superEvent && data.superEvent.additionalType === \"TeachingEvent\"",
              "type": "htmlelement",
              "input": false,
              "hideLabel": true
            }
          ]
        },
        {
          "components": [
            {
              "label": "This event will be scheduled at a future date",
              "tableView": false,
              "key": "willBeScheduled",
              "type": "checkbox",
              "input": true
            }
          ],
          "width": 12
        },
        {
          "key": "scheduleAt",
          "type": "fieldset",
          "label": "Schedule at",
          "hideLabel": true,
          "input": false,
          "tableView": false,
          "customConditional": "show = !data.willBeScheduled",
          "components": [
            {
              "customClass": "text-dark",
              "hideLabel": true,
              "type": "columns",
              "input": false,
              "columns": [
                {
                  "components": [
                    {
                      "label": "Date",
                      "format": "dd-MM-yyyy",
                      "enableTime": false,
                      "validate": {
                        "required": true,
                        "custom": "valid = input && data.superEvent && data.superEvent.startDate && (moment(input).isAfter(moment(data.superEvent.startDate).subtract(1, 'days')) && moment(input).isBefore(moment(data.superEvent.endDate).add(1, 'days')));"
                      },
                      "errors": {
                        "custom": "Event date cannot be earlier than the timetable start date or after the timetable end date"
                      },
                      "key": "startDate",
                      "type": "datetime",
                      "input": true,
                      "customOptions": {
                        "dateFormat": "yyyy-MM-dd",
                        "maxDate": "moment().add(100, 'years')",
                        "allowInput": true
                      },
                      "widget": {
                        "type": "calendar"
                      }
                    }
                  ],
                  "width": 4
                },
                {
                  "components": [
                    {
                      "label": "Start Time",
                      "format": "HH:mm",
                      "tableView": false,
                      "enableDate": false,
                      "validate": {
                        "required": true,
                        "custom": "valid = input && data.endTime && moment(input).isBefore(data.endTime);"
                      },
                      "errors": {
                        "custom": "Start time cannot succeed end time."
                      },
                      "timePicker": {
                        "minuteStep": 15,
                        "showMeridian": false
                      },
                      "key": "startTime",
                      "type": "datetime",
                      "input": true,
                      "customDefaultValue": "value = new Date(data.startDate).toISOString()"
                    }
                  ],
                  "width": 4
                },
                {
                  "components": [
                    {
                      "label": "End Time",
                      "format": "HH:mm",
                      "tableView": false,
                      "enableDate": false,
                      "validate": {
                        "required": true,
                        "custom": "valid = input && data.startTime && moment(data.startTime).isBefore(input);"
                      },
                      "errors": {
                        "custom": "End time cannot precede start time."
                      },
                      "timePicker": {
                        "minuteStep": 15,
                        "showMeridian": false
                      },
                      "key": "endTime",
                      "type": "datetime",
                      "input": true,
                      "customDefaultValue": "value = new Date(data.endDate).toISOString()"
                    }
                  ],
                  "width": 4
                }
              ]
            }
          ]
        },
        {
          "customClass": "text-dark",
          "hideLabel": true,
          "type": "columns",
          "input": false,
          "columns": [
            {
              "components": [
                {
                  "label": "Duration",
                  "widget": {
                    "type": "input"
                  },
                  "validate": {
                    "required": false
                  },
                  "key": "totalDuration",
                  "requireDecimal": false,
                  "inputFormat": "plain",
                  "truncateMultipleSpaces": false,
                  "type": "number",
                  "input": true,
                  "customClass": "d-none",
                  "description": "Set event duration in minutes",
                  "logic": [
                    {
                      "name": "HideLogic",
                      "trigger": {
                        "type": "javascript",
                        "javascript": "result = !data.willBeScheduled"
                      },
                      "actions": [
                        {
                          "name": "Hide",
                          "type": "property",
                          "property": {
                            "label": "Container Custom Class",
                            "value": "customClass",
                            "type": "string"
                          },
                          "text": "d-none"
                        }
                      ]
                    },
                    {
                      "name": "ShowLogic",
                      "trigger": {
                        "type": "javascript",
                        "javascript": "result = data.willBeScheduled"
                      },
                      "actions": [
                        {
                          "name": "Show",
                          "type": "property",
                          "property": {
                            "label": "Container Custom Class",
                            "value": "customClass",
                            "type": "string"
                          },
                          "text": "d-block"
                        }
                      ]
                    }
                  ]
                },
                {
                  "label": "Duration",
                  "customClass": "d-none",
                  "tableView": true,
                  "disabled": true,
                  "key": "duration",
                  "redrawOn": "totalDuration",
                  "calculateValue": "value= parseInt(data.totalDuration, 10) >= 0 ? moment.duration(data.totalDuration, 'minutes').toString() : null;",
                  "type": "textfield",
                  "input": true
                }
              ],
              "width": 4
            }
          ]
        },
        {
          "customClass": "text-dark",
          "hideLabel": true,
          "type": "columns",
          "input": true,
          "columns": [
            {
              "components": [
                {
                  "label": "Event Name",
                  "widget": {
                    "type": "input"
                  },
                  "validate": {
                    "required": true
                  },
                  "key": "name",
                  "type": "textfield",
                  "input": true
                }
              ],
              "width": 8
            },
            {
              "components": [
                {
                  "label": "Absence Coefficient",
                  "description": "The number of absences an absent student will be charged with.",
                  "tableView": true,
                  "validate": {
                    "required": false,
                    "pattern": "^[0-9]+$",
                    "min": 0
                  },
                  "errors" : {
                    "pattern": "The absence coefficient must be an integer."
                  },
                  "type": "textfield",
                  "key": "eventAttendanceCoefficient",
                  "input": true,
                  "defaultValue": 1,
                  "disabled": true
                }
              ],
              "width": 4
            },
            {
              "components": [
                {
                  "label": "Sections",
                  "widget": "choicesjs",
                  "tableView": true,
                  "multiple": true,
                  "template": "{{ item.name }}",
                  "dataType": "object",
                  "idPath": "id",
                  "dataSrc": "url",
                  "data": {
                    "url": "instructors/me/courseClassSections?$select=id,name&$filter=courseClass eq '{{data.courseClass.id}}'",
                    "headers": []
                  },
                  "selectThreshold": 0.3,
                  "validate": {
                    "required": true
                  },
                  "customConditional": "show = (data.courseClass && data.courseClass.mustRegisterSection)",
                  "selectValues": "value",
                  "key": "sections",
                  "type": "select",
                  "input": true
                }
              ],
              "width": 4
            }
          ]
        },
        {
          "customClass": "text-dark",
          "hideLabel": true,
          "type": "columns",
          "input": false,
          "columns": [
            {
              "components": [
            {
              "label": "Place",
              "widget": "choicesjs",
              "tableView": true,
              "multiple": false,
              "template": "{{ item.name }}",
              "dataType": "object",
              "idPath": "id",
              "dataSrc": "url",
              "ignoreCache": true,
              "data": {
                "url": "TimetableEvents/{{data.superEvent.superEvent || data.superEvent.id}}/availablePlaces",
                "headers": []
              },
              "selectThreshold": 0.3,
              "key": "location",
              "type": "select",
              "input": true
            }
          ],
          "width": 6
        },
        {
          "components": [
            {
              "label": "Event URL",
              "widget": {
                "type": "input"
              },
              "key": "url",
              "type": "textfield",
              "input": true,
              "validate": {
                "pattern": "^((https?|ftps?):\\/\\/)([\\da-z.-]+)\\.([a-z.]{2,6})([\\/\\w .-]*)*\\/?(.*?)",
                "customMessage": "Expected a valid absolute URL"
              },
              "description": "Enter the URL related to the event"
            }
          ],
          "width": 6
        }
       ]
      }
     ]
    },
    {
      "label": "Description",
      "tableView": true,
      "validate": {
        "required": false,
        "maxLength": 512
      },
      "key": "description",
      "type": "textarea",
      "rows": 3,
      "input": true
    }
  ]
}

