{
    "title": "iTheses.List",
    "model": "Instructors/me/thesisStudents",
    "searchExpression": "indexof(student/studentIdentifier, '${text}') ge 0 or indexof(student/person/familyName, '${text}') ge 0 or indexof(student/person/givenName, '${text}') ge 0 or indexof(student/department/name, '${text}') ge 0 or indexof(thesis/name, '${text}') ge 0",
    "multipleSelect": false,
    "columns": [
      {
        "name": "id",
        "property": "id",
        "hidden": true
      },
      {
        "name": "thesis/id",
        "property": "thesisID",
        "formatter": "ButtonFormatter",
        "className": "text-center",
        "formatOptions": {
          "buttonContent": "<i class=\"fas fa-eye text-indigo\"></i>",
          "buttonClass": "btn btn-default",
          "commands": [
            { "outlets":{
              "modal": ["${thesisID}"]
              }
            }
          ]
        }
      },
      {
        "name": "thesis/name",
        "property": "name",
        "title": "iTheses.Name"
      },
      {
        "name": "thesis/type/name",
        "property": "thesisType",
        "title": "iTheses.Type"
      },
      {
        "name": "thesis/startYear/name",
        "property": "startYear",
        "title": "iTheses.StartYear"
      },
      {
        "name": "thesis/startDate",
        "property": "startDate",
        "title": "iTheses.StartDate",
        "formatter": "DateTimeFormatter",
        "formatString": "shortDate"
      },
      {
        "name": "thesis/endDate",
        "property": "endDate",
        "title": "iTheses.DateCompleted",
        "formatter": "DateTimeFormatter",
        "formatString": "shortDate"
      },
      {
        "name": "thesis/startPeriod/name",
        "property": "startPeriod",
        "title": "iTheses.StartPeriod"
      },
      {
        "name": "thesis/department/name",
        "property": "studentDepartment",
        "title": "iTheses.Department"
      },    
      {
        "name": "student/studentIdentifier",
        "property": "studentIdentifier",
        "title": "iTheses.StudentIdentifier"
      },        
      {
        "name": "student/person/givenName",
        "property": "studentGivenName",
        "title": "iTheses.StudentFamilyName",
        "hidden": true
      },
      {
        "name": "student/person/familyName",
        "property": "studentFamilyName",
        "title": "iTheses.StudentFullName",
        "formatter": "TemplateFormatter",
        "formatString": "${studentFamilyName} ${studentGivenName}"
      },
      {
        "name": "thesis/members/roleName",
        "property": "roleType",
        "title": "iTheses.RoleType",
        "formatter": "TranslationFormatter",
        "formatString": "iTheses.RoleNames.${value}"
      },
      {
        "name": "thesis/status/alternateName",
        "property": "status",
        "title": "iTheses.ThesesStatus.status",
        "formatters": [
          {
            "formatter": "TranslationFormatter",
            "formatString": "iTheses.ThesesStatus.${value}"
          },
          {
            "formatter": "NgClassFormatter",
            "formatOptions": {
              "ngClass": {
                "text-theme": "'${status}' === 'active'",
                "text-danger": "'${status}'==='cancelled' || '${status}'==='paused'",
                "text-success": "'${status}'==='completed'"
              }
            }
          }
        ]
        
      },
      {
        "name": "student/studentStatus/alternateName",
        "property": "studentStatus",
        "title": "iTheses.StudentStatus",
        "formatters": [
          {
            "formatter": "TranslationFormatter",
            "formatString": "StudentStatuses.${value}"
          },
          {
            "formatter": "NgClassFormatter",
            "formatOptions": {
              "ngClass": {
                "text-danger": "'${studentStatus}'==='removed' || '${studentStatus}'==='suspended' || '${studentStatus}' === 'erased'",
                "text-theme": "'${studentStatus}'==='active' || '${studentStatus}'==='candidate'",
                "text-success": "'${studentStatus}'==='declared' || '${studentStatus}'==='graduated' "
              }
            }
          }
        ]
      },
      {
        "name": "thesis/formattedGrade",
        "property": "formattedGrade",
        "title": "iTheses.Grade",
        "className": "text-center"
      }
   
    ],
    "defaults": {
      "groupBy": "id,thesis/id,thesis/name,thesis/department/name,thesis/type/name,thesis/members/roleName,thesis/startYear/name,thesis/status/alternateName,thesis/startDate,thesis/endDate,student/studentIdentifier,student/person/familyName,student/person/givenName,student/studentStatus/alternateName, thesis/formattedGrade"
    },
    "criteria": [
      {
        "name": "thesisName",
        "filter": "(indexof(thesis/name, '${value}') ge 0)",
        "type": "text"
      },
      {
        "name": "studentName",
        "filter": "(indexof(student/person/familyName, '${value}') ge 0 or indexof(student/person/givenName, '${value}') ge 0)",
        "type": "text"
      },
      {
        "name": "studentIdentifier",
        "filter": "(indexof(student/studentIdentifier, '${value}') ge 0)",
        "type": "text"
      },
      {
        "name": "roleType",
        "filter": "(thesis/members/roleName eq '${value}')",
        "type": "text"
      },
      {
        "name": "studentDepartment",
        "filter": "(thesis/department/id eq'${value}')",
        "type": "text"
      },
      {
        "name": "thesisType",
        "filter": "(thesis/type/id eq '${value}')",
        "type": "text"
      },
      {
        "name": "studentStatus",
        "filter": "(indexof(student/studentStatus/alternateName, '${value}') eq 0)",
        "type": "text"
      },
      {
        "name": "startYear",
        "filter": "(indexof(thesis/startYear/alternateName, '${value}') eq 0)",
        "type": "text"
      },
      {
        "name": "thesisStatus",
        "filter": "(thesis/status/id eq '${value}')",
        "type": "text"
      }
    ],
    "paths": [
      {
        "name": "iTheses.Current",
        "alternateName": "list/current",
        "show": true
      },
      {
        "name": "iTheses.All",
        "alternateName": "list/all",
        "show": true
      }
    ]
}
  