{
  "settings": {
    "i18n": {
      "el": {
        "Instructors": "Διδάσκοντες",
        "Distinct part title": "Διακριτός τίτλος μέρους",
        "TitleDesciption": "Ο διακριτός τίτλος του μέρους μαθήματος, θα προστεθεί στο τέλος του τίτλου. Για παράδειγμα, μάθημα με τίτλο \"Δομές Δεδομένων\" και διακριτό τίτλο μέρους \"Θεωρία\", θα εμφανιστεί ως \"Δομές Δεδομένων (Θεωρία)\" στο elearning."
      },
      "en": {
        "TitleDesciption": "The distinct title of the course part will be added to the end of the title. For example, a course with title \"Data Structures\" and distinct part title \"Theory\", will appear as \"Data Structures (Theory)\" in elearning."
      }
    }
  },
  "components": [
    {
      "label": "Columns",
      "columns": [
        {
          "components": [
            {
              "label": "Distinct part title",
              "description": "TitleDesciption",
              "tableView": true,
              "validate": {
                "required": true
              },
              "key": "title",
              "type": "textfield",
              "input": true
            },
            {
              "label": "Instructors",
              "widget": "choicesjs",
              "tableView": true,
              "template": "{{ item.instructor.familyName }} {{ item.instructor.givenName }}",
              "dataSrc": "url",
              "selectValues": "value",
              "valueProperty": "instructor",
              "multiple": true,
              "data": {
                "url": "Instructors/me/classes/{{form.currentClass.id}}/instructors?$expand=instructor($select=InstructorSummary)&$select=id,instructor",
                "headers": []
              },
              "selectThreshold": 0.3,
              "validate": {
                "required": true
              },
              "key": "instructors",
              "type": "select",
              "input": true,
              "hideOnChildrenHidden": false,
              "lazyLoad": false
            }
          ],
          "width": 12,
          "offset": 0,
          "push": 0,
          "pull": 0
        }
      ],
      "key": "columns",
      "type": "columns",
      "input": false,
      "tableView": false
    }
  ]
}
