{
  "model": "NavigationLinks",
  "settings": {
    "defaultLocale": "el",
    "i18n": {
      "el": {
        "CourseLinks": "Σύνδεσμοι μαθήματος",
        "CourseLinksDescr": "Ορίστε τους συνδέσμους του μαθήματος.",
        "StudyGuide": "Οδηγός σπουδών",
        "AutoFillDescr": "Αν το αφήσετε κενό, ο σύνδεσμος παράγεται αυτόματα με τη μορφή που έχει οριστεί σε ιδρυματικό επίπεδο.",
        "Elearning": "elearning",
        "MoreLinks": "Επιπλέον σύνδεσμοι",
        "MoreLinksDescr": "Μπορείτε να εισάγετε έναν ή περισσότερους συνδέσμους για το μάθημα και να επεξεργαστείτε μόνο τους συνδέσμους που έχετε προσθέσει εσείς προσωπικά.",
        "Name": "Όνομα συνδέσμου",
        "URL": "Ηλεκτρονική διεύθυνση",
        "Add": "Προσθήκη"
      },
      "en": {
        "CourseLinks": "Course links",
        "CourseLinksDescr": "Please fill in the corresponding URLs for the course.",
        "StudyGuide": "Study guide",
        "AutoFillDescr": "If you leave it empty, the link will be generated automatically.",
        "Elearning": " elearning",
        "MoreLinks": "More links",
        "MoreLinksDescr": "You can add more links for this course and edit only links that you added yourself."
      }
    }
  },
  "components": [
    {
      "collapsible": false,
      "legend": "test",
      "input": false,
      "tableView": false,
      "components": [
        {
          "label": "Coursclass id",
          "key": "courseClass.id",
          "type": "hidden",
          "input": true,
          "tableView": false
        },
        {
          "label": "Columns",
          "columns": [
            {
              "components": [
                {
                  "input": false,
                  "html": "<h3>{{instance.t('CourseLinks')}}</h3><p class='text-secondary'>{{instance.t('CourseLinksDescr')}}</p>",
                  "type": "content"
                },
                {
                  "input": false,
                  "html": "<h5>{{instance.t('StudyGuide')}}</h5>",
                  "type": "content"
                },
                {
                  "components": [
                    {
                      "columns": [
                        {
                          "components": [
                            {
                              "input": false,
                              "html": "<p class='text-secondary'>{{instance.t('AutoFillDescr')}}</p>",
                              "type": "content",
                              "customConditional": "show = !!(data.courseClassUrlTemplate)"
                            },
                            {
                              "label": "AutoFillDescr",
                              "hideLabel": true,
                              "tableView": true,
                              "key": "statistic.studyGuideUrl",
                              "type": "textfield",
                              "input": true,
                              "validate": {
                                "pattern": "(([\\w]+:)?//)?(([\\d\\w]|%[a-fA-f\\d]{2,2})+(:([\\d\\w]|%[a-fA-f\\d]{2,2})+)?@)?([\\d\\w][-\\d\\w]{0,253}[\\d\\w]\\.)+[\\w]{2,63}(:[\\d]+)?(/([-+_~.\\d\\w]|%[a-fA-f\\d]{2,2})*)*(\\?(&?([-+_~.\\d\\w]|%[a-fA-f\\d]{2,2})=?)*)?(#([-+_~.\\d\\w]|%[a-fA-f\\d]{2,2})*)?",
                                "customMessage": "Please fill the field with a valid URL."
                              }
                            }
                          ],
                          "width": 12
                        }
                      ],
                      "type": "columns",
                      "input": false
                    }
                  ]
                },
                {
                  "input": false,
                  "html": "<h5>{{instance.t('Elearning')}}</h5>",
                  "type": "content",
                  "customConditional": "show = !(data.hideElearningUrl)"
                },
                {
                  "components": [
                    {
                      "columns": [
                        {
                          "components": [
                            {
                              "input": false,
                              "html": "<p class='text-secondary'>{{instance.t('AutoFillDescr')}}</p>",
                              "type": "content",
                              "customConditional": "show = !!(data.eLearningUrlTemplate) && !(data.hideElearningUrl)"
                            },
                            {
                              "label": "AutoFillDescr",
                              "hideLabel": true,
                              "tableView": true,
                              "key": "statistic.eLearningUrl",
                              "type": "textfield",
                              "input": true,
                              "hideOnChildrenHidden": false,
                              "validate": {
                                "pattern": "(([\\w]+:)?//)?(([\\d\\w]|%[a-fA-f\\d]{2,2})+(:([\\d\\w]|%[a-fA-f\\d]{2,2})+)?@)?([\\d\\w][-\\d\\w]{0,253}[\\d\\w]\\.)+[\\w]{2,63}(:[\\d]+)?(/([-+_~.\\d\\w]|%[a-fA-f\\d]{2,2})*)*(\\?(&?([-+_~.\\d\\w]|%[a-fA-f\\d]{2,2})=?)*)?(#([-+_~.\\d\\w]|%[a-fA-f\\d]{2,2})*)?",
                                "customMessage": "Please fill the field with a valid URL."
                              },
                              "customConditional": "show = !(data.hideElearningUrl)"
                            }
                          ],
                          "width": 12
                        }
                      ],
                      "type": "columns",
                      "input": false
                    }
                  ]
                },
                {
                  "input": false,
                  "html": "<h5>{{instance.t('MoreLinks')}}</h5>",
                  "type": "content"
                },
                {
                  "label": "MoreLinksDescr",

                  "reorder": false,
                  "addAnother": "Add",
                  "addAnotherPosition": "bottom",
                  "defaultOpen": false,
                  "layoutFixed": false,
                  "enableRowGroups": false,
                  "tableView": false,
                  "key": "othersNavigationLinks",
                  "type": "datagrid",
                  "customClass": "border-0 text-secondary",
                  "input": false,
                  "hideOnChildrenHidden": true,
                  "disabled": true,
                  "components": [
                    {
                      "columns": [
                        {
                          "components": [
                            {
                              "label": "Name",
                              "tableView": true,
                              "key": "name",
                              "type": "textfield",
                              "input": false,
                              "customConditional": "show = !!(data.othersNavigationLinks[0].url!=null)"
                            }
                          ],
                          "width": 6
                        },
                        {
                          "components": [
                            {
                              "label": "URL",
                              "tableView": true,
                              "key": "url",
                              "type": "textfield",
                              "input": false,
                              "customConditional": "show = !!(data.othersNavigationLinks[0].url!=null)"
                            }
                          ],
                          "width": 6
                        }
                      ],
                      "type": "columns",
                      "input": false
                    }
                  ]
                },
                {
                  "label": "E-study",
                  "hideLabel": true,
                  "reorder": false,
                  "addAnother": "Add",
                  "addAnotherPosition": "bottom",
                  "defaultOpen": false,
                  "layoutFixed": false,
                  "enableRowGroups": false,
                  "tableView": false,
                  "key": "navigationLinks",
                  "initEmpty": true,
                  "type": "datagrid",
                  "customClass": "border-0",
                  "input": true,
                  "components": [
                    {
                      "columns": [
                        {
                          "components": [
                            {
                              "label": "Name",
                              "tableView": true,
                              "key": "name",
                              "type": "textfield",
                              "input": true,
                              "hideOnChildrenHidden": false,
                              "validate": {
                                "required": true,
                                "customMessage": "Please fill the field."
                              }
                            }
                          ],
                          "width": 6
                        },
                        {
                          "components": [
                            {
                              "label": "URL",
                              "tableView": true,
                              "key": "url",
                              "type": "textfield",
                              "input": true,
                              "validate": {
                                "required": true,
                                "pattern": "(([\\w]+:)?//)?(([\\d\\w]|%[a-fA-f\\d]{2,2})+(:([\\d\\w]|%[a-fA-f\\d]{2,2})+)?@)?([\\d\\w][-\\d\\w]{0,253}[\\d\\w]\\.)+[\\w]{2,63}(:[\\d]+)?(/([-+_~.\\d\\w]|%[a-fA-f\\d]{2,2})*)*(\\?(&?([-+_~.\\d\\w]|%[a-fA-f\\d]{2,2})=?)*)?(#([-+_~.\\d\\w]|%[a-fA-f\\d]{2,2})*)?",
                                "customValidate": "function(value) { return value.trim() !== ''; }",
                                "customMessage": "Please fill the field with a valid URL."
                              }
                            }
                          ],
                          "width": 6
                        }
                      ],
                      "type": "columns",
                      "input": false
                    }
                  ]
                }
              ],
              "width": 12
            }
          ],
          "type": "columns",
          "input": false
        }
      ]
    }
  ]
}